<?xml version="1.0" encoding="utf-8"?>
<!-- Generator: Adobe Illustrator 21.0.2, SVG Export Plug-In . SVG Version: 6.00 Build 0)  -->
<svg version="1.1" id="post" xmlns="http://www.w3.org/2000/svg" xmlns:xlink="http://www.w3.org/1999/xlink" x="0px" y="0px"
	 viewBox="0 0 128 128" style="enable-background:new 0 0 128 128;" xml:space="preserve">
<style type="text/css">
	.st0{fill:#3AD0F9;}
	.st1{fill:#EAEAEA;}
	.st2{fill:#D4D6D6;}
	.st3{fill:#663210;}
	.st4{fill:#FFFFFF;}
	.st5{fill:#FF4848;}
	.st6{fill:#ADADAD;}
	.st7{fill:#AD5114;}
	.st8{fill:#993F0D;}
</style>
<g>
	<circle class="st0" cx="64" cy="64" r="64"/>
	<path class="st1" d="M24.5,79.4V54.5c0-11.5,9.5-21,21-21h41c11.5,0,21,9.5,21,21v24.9H24.5z"/>
	<path class="st2" d="M86.5,33.5H74c11.5,0,21,9.5,21,21v24.9h12.5V54.5C107.5,42.9,98.1,33.5,86.5,33.5z"/>
	<path class="st3" d="M108,81H24.5c-0.6,0-1-0.4-1-1V54.5c0-12.2,10.1-22.5,22-22.5h41C98.7,32,109,42.3,109,54.5V80
		C109,80.6,108.6,81,108,81z M25.5,79H107V54.5C107,43.6,97.4,34,86.5,34h-41c-10.8,0-20,9.4-20,20.5V79z"/>
	<path class="st4" d="M21.7,79.4V54.5c0-11.5,9.5-21,21-21h0.7c11.5,0,21,9.5,21,21v24.9H21.7z"/>
	<path class="st3" d="M64,81H21c-0.6,0-1-0.4-1-1V54.5C20,42.5,30.6,32,42.7,32h0.7C55.6,32,65,41.7,65,54v26C65,80.6,64.6,81,64,81
		z M22,79h41V54c0-11.2-8.6-20-19.5-20h-0.7C31.7,34,22,43.6,22,54.5V79z"/>
	<polygon class="st5" points="76.8,14.2 92.8,20.6 76.8,27 	"/>
	<rect x="72" y="14.2" class="st1" width="4.7" height="37.7"/>
	<path class="st3" d="M77,52.9h-5c-0.6,0-1-0.4-1-1V14c0-0.6,0.4-1,1-1h5c0.6,0,1,0.4,1,1v37.9C78,52.5,77.6,52.9,77,52.9z M73,50.9
		h3V15h-3V50.9z"/>
	<circle class="st1" cx="77.7" cy="54" r="6.3"/>
	<circle class="st4" cx="78" cy="54" r="3"/>
	<path class="st1" d="M56,62c0,2.2-1.8,4-4,4H33c-2.2,0-4-1.8-4-4v-4c0-2.2,1.8-4,4-4h19c2.2,0,4,1.8,4,4V62z"/>
	<path class="st6" d="M51,59H34c-0.6,0-1-0.4-1-1s0.5-1,1-1h17c0.6,0,1,0.4,1,1S51.5,59,51,59z"/>
	<path class="st6" d="M48,63h-4c-0.6,0-1-0.4-1-1s0.5-1,1-1h4c0.6,0,1,0.4,1,1S48.5,63,48,63z"/>
	<path class="st7" d="M60.7,127.9c1.2,0.1,2.4,0.1,3.6,0.1c2.2,0,4.3-0.1,6.4-0.3V79.5h-10V127.9z"/>
	<rect x="60.7" y="79.8" class="st8" width="10" height="4.2"/>
	<path class="st6" d="M40,63H34c-0.5,0-1-0.4-1-1s0.4-1,1-1H40c0.5,0,1,0.4,1,1S40.6,63,40,63z"/>
	<path class="st3" d="M65,121c-0.6,0-1-0.5-1-1V87c0-0.6,0.4-1,1-1c0.6,0,1,0.5,1,1v33C66,120.5,65.6,121,65,121z"/>
	<path class="st3" d="M70.7,79h-10c-0.6,0-0.7-0.1-0.7,0.5V128c0.7,0,1.3-0.1,2,0V81h8v46.8c0.7-0.1,1.3-0.1,2-0.2V79.5
		C72,78.9,71.2,79,70.7,79z"/>
	<path class="st3" d="M78,61c-4.1,0-7-2.9-7-7s2.9-7,7-7c4.1,0,7,2.9,7,7S82.1,61,78,61z M78,49c-2.9,0-5,2.1-5,5s2.1,5,5,5
		c2.9,0,5-2.1,5-5S80.9,49,78,49z"/>
	<path class="st3" d="M77,28c-0.4,0,0.3-0.2,0.2-0.6c-0.2-0.5-1-1.1-0.5-1.3l13.7-5.5L76.6,15c-0.5-0.2-0.8-0.8-0.6-1.3
		c0.2-0.5,0.8-0.8,1.3-0.6l16,6.5c0.4,0.2,0.6,0.5,0.6,0.9c0,0.4-0.2,0.8-0.6,0.9l-16,6.5C77.2,27.9,77.1,28,77,28z"/>
	<path class="st4" d="M103,76c-0.5,0-1-0.4-1-1V53.9c0-3.5-1.3-7.5-3.2-9.9c-2.2-2.7-5.2-4-5.2-4.1c-0.5-0.2-0.7-0.8-0.5-1.3
		c0.2-0.5,0.8-0.8,1.3-0.5c0.1,0.1,3.5,1.5,6,4.6c2.2,2.7,3.7,7.2,3.7,11.2V75C104,75.6,103.6,76,103,76z"/>
	<path class="st4" d="M84.7,21.5c-0.1,0-0.2,0-0.3,0L79.9,20c-0.5-0.2-0.8-0.7-0.6-1.3c0.2-0.5,0.7-0.8,1.3-0.6l4.5,1.5
		c0.5,0.2,0.8,0.7,0.6,1.3C85.5,21.2,85.1,21.5,84.7,21.5z"/>
	<path class="st4" d="M57,23c-2.2,0-4-1.8-4-4c0-2.2,1.8-4,4-4c2.2,0,4,1.8,4,4C61,21.2,59.2,23,57,23z M57,17c-1.1,0-2,0.9-2,2
		c0,1.1,0.9,2,2,2c1.1,0,2-0.9,2-2C59,17.9,58.1,17,57,17z"/>
	<path class="st4" d="M43,107c-2.2,0-4-1.8-4-4c0-2.2,1.8-4,4-4c2.2,0,4,1.8,4,4C47,105.2,45.2,107,43,107z M43,101
		c-1.1,0-2,0.9-2,2c0,1.1,0.9,2,2,2c1.1,0,2-0.9,2-2C45,101.9,44.1,101,43,101z"/>
	<path class="st4" d="M96.3,103c0-0.4-0.4-0.8-1-0.9l-1.9-0.3c-0.5-0.1-1.1-0.6-1.1-1.1l-0.3-1.9c-0.1-0.5-0.5-1-0.9-1
		c-0.4,0-0.8,0.4-0.9,1l-0.3,1.9c-0.1,0.5-0.6,1.1-1.1,1.1l-1.9,0.3c-0.5,0.1-1,0.5-1,0.9s0.4,0.8,1,0.9l1.9,0.3
		c0.5,0.1,1.1,0.6,1.1,1.1l0.3,1.9c0.1,0.5,0.5,1,0.9,1c0.4,0,0.8-0.4,0.8-1l0.3-2.1c0.1-0.5,0.6-1,1.1-1.1l1.8-0.1
		C95.9,103.7,96.3,103.4,96.3,103z"/>
	<path class="st4" d="M40.8,22c0-0.4-0.4-0.8-1-0.9L38,20.9c-0.5-0.1-1.1-0.6-1.1-1.1l-0.3-1.9c-0.1-0.5-0.5-1-0.9-1
		c-0.4,0-0.8,0.4-0.9,1l-0.3,1.9c-0.1,0.5-0.6,1.1-1.1,1.1l-1.9,0.3c-0.5,0.1-1,0.5-1,0.9s0.4,0.8,1,0.9l1.9,0.3
		c0.5,0.1,1.1,0.6,1.1,1.1l0.3,1.9c0.1,0.5,0.5,1,0.9,1c0.4,0,0.8-0.4,0.8-1l0.3-2.1c0.1-0.5,0.6-1,1.1-1.1l1.8-0.1
		C40.4,22.7,40.8,22.4,40.8,22z"/>
	<path class="st4" d="M31.4,93.3c0-0.4-0.4-0.8-1-0.9l-1.9-0.3c-0.5-0.1-1.1-0.6-1.1-1.1l-0.3-1.9c-0.1-0.5-0.5-1-0.9-1
		c-0.4,0-0.8,0.4-0.9,1L25.1,91c-0.1,0.5-0.6,1.1-1.1,1.1l-1.9,0.3c-0.5,0.1-1,0.5-1,0.9c0,0.4,0.4,0.8,1,0.9l1.9,0.3
		c0.5,0.1,1.1,0.6,1.1,1.1l0.3,1.9c0.1,0.5,0.5,1,0.9,1c0.4,0,0.8-0.4,0.8-1l0.3-2.1c0.1-0.5,0.6-1,1.1-1.1l1.8-0.1
		C31,94,31.4,93.7,31.4,93.3z"/>
</g>
</svg>
